<?xml version="1.0" encoding="UTF-8" standalone="no"?>
<!-- Created with Inkscape (http://www.inkscape.org/) -->

<svg
   id="svg2"
   sodipodi:docname="fist_pen.svg"
   inkscape:export-filename="pencil-fist.png"
   viewBox="0 0 1000 999.99996"
   inkscape:export-xdpi="96"
   version="1.1"
   inkscape:export-ydpi="96"
   inkscape:version="1.1 (c4e8f9ed74, 2021-05-24)"
   width="1000"
   height="1000"
   xmlns:inkscape="http://www.inkscape.org/namespaces/inkscape"
   xmlns:sodipodi="http://sodipodi.sourceforge.net/DTD/sodipodi-0.dtd"
   xmlns="http://www.w3.org/2000/svg"
   xmlns:svg="http://www.w3.org/2000/svg"
   xmlns:rdf="http://www.w3.org/1999/02/22-rdf-syntax-ns#"
   xmlns:cc="http://creativecommons.org/ns#"
   xmlns:dc="http://purl.org/dc/elements/1.1/">
  <defs
     id="defs10" />
  <sodipodi:namedview
     id="base"
     bordercolor="#666666"
     inkscape:pageshadow="2"
     inkscape:window-y="0"
     fit-margin-left="20"
     pagecolor="#ffffff"
     inkscape:window-height="823"
     inkscape:window-maximized="0"
     inkscape:zoom="0.5"
     inkscape:window-x="0"
     showgrid="false"
     borderopacity="1.0"
     inkscape:current-layer="layer1"
     inkscape:cx="64"
     inkscape:cy="417"
     fit-margin-top="20"
     fit-margin-right="20"
     fit-margin-bottom="20"
     inkscape:window-width="1884"
     inkscape:pageopacity="0"
     inkscape:document-units="px"
     inkscape:pagecheckerboard="0"
     height="800px" />
  <g
     id="layer1"
     inkscape:label="Layer 1"
     inkscape:groupmode="layer"
     transform="translate(-341.13,-16.948)">
    <path
       id="path3003"
       sodipodi:nodetypes="ccccccccccccccccccc"
       style="fill:#ffffff"
       inkscape:connector-curvature="0"
       d="m 891.46379,229.62926 -91.062,30.031 -83.188,50.812 -68.062,67.688 -56.875,71.375 111.81001,133.59 -3.2812,2 -64.31201,-78.688 24.31201,114.88 57.875,57.375 12.25,248.41 255.03002,-56.312 -40.62503,-221.97 110.47011,-212.56 -93.28111,-137.12 -1.5,0.46875 -0.59375,0.21875 -26.562,8.4688 z" />
    <path
       id="rect3848"
       style="color:#000000;fill:#16aa65;fill-opacity:1"
       d="m 1126.3438,153.35147 -131.80998,58.312 -72.71902,74.24999 5.0938,9.4688 h 1.2812 v 2.3438 l 5.6875,10.562 26.562,-8.4688 0.59375,-0.21875 1.5,-0.46875 39.24995,57.688 69.1881,-70.656 z m -301.36001,364.27999 -4.1324,-3.079 -115.43,75.147 -37.47,-43.301 -75.795,76.235 76.438,74.438 139.22,-144.48 z"
       sodipodi:nodetypes="ccccccccccccccccccccc"
       inkscape:connector-curvature="0" />
    <path
       id="path3861"
       style="color:#000000;fill:#000000"
       sodipodi:type="star"
       sodipodi:sides="3"
       inkscape:transform-center-x="309.60371"
       sodipodi:r1="32.249031"
       sodipodi:r2="16.124516"
       sodipodi:arg1="0.52359878"
       sodipodi:arg2="1.5707963"
       transform="matrix(0.58093,0.66229,-0.7894,0.89996,1047.9139,-146.58074)"
       inkscape:randomized="0"
       sodipodi:cy="153.36218"
       sodipodi:cx="287"
       inkscape:rounded="0"
       inkscape:flatsided="true"
       d="m 314.92848,169.4867 -55.85696,0 L 287,121.11315 Z" />
    <path
       id="path3907"
       style="color:#000000;text-indent:0;text-transform:none;fill:#000000"
       inkscape:connector-curvature="0"
       d="m 1130.9938,143.50767 -7.5312,3.3438 -133.11998,58.844 -66.84402,68.31199 -28.531,-53.03099 -98.5,32.71899 -84.406,51.844 -70.188,70.25 -58.812,73.875 37.906,45.594 18.125,69.219 -57.062,58.281 86.688,84.469 37.781,-38.531 6.875,34.438 7.0312,231.22 274.00002,-56.594 -41.59402,-223.5 111.4501,-218.23 -53.28,-78.31 66.03,-67.5 58.9699,-141.49999 -5,-5.2188 z m -18.125,23.625 -1.9375,4.625 -46.3119,110.74999 -61.8441,63.156 -37.31201,-54.938 -27.438,10.25 -6.4062,-14.844 67.37503,-68.62499 113.87998,-50.375 z m -224.84,71.12499 0.46875,0.875 0.3125,0.625 34.844,64.656 -71.75,26.25 -40.71,-67.09 76.844,-25.312 z m -90,31.219 1.0625,1.7188 39.375,64.844 -55.375,22.75 22.688,51.281 56.40999,18.91 20.34401,6 9.5312,4 -44.938,39.656 -9.85,-10.47 -109.84001,-155.56 70.59001,-43.13 z m 161.52999,38 0.5625,0.8125 0.34375,0.5 86.90606,127.69 -109.50006,214.94 39.656,212.38 -244.06,56.062 -7.25,-231.66 -7.9375,-33.312 80.719,-82.438 13.656,47 7.3438,-0.875 -6.2188,-56.875 46.594,-75.875 52.125,-45.344 32.781,-19.438 -7.125,-20.656 -45.4,21.67 -76.17999,-23.12 -13.97001,-31.1 156.97001,-60.34 z m -243.30999,14 1.3438,1.9375 116.91,165.65 -56.84001,41.47 -118.97,-151.84 57.56001,-57.22 z m -67.156,68.188 1.5625,2 115.19,147.03 -57.844,37.969 -106.5,-127.22 47.594,-59.781 z m 170.38,128.12 2.0938,3.125 -17.656,27.938 -135.44,138.19 -66.25,-64.531 67.48,-69.34 35.469,42.406 81.562,-53.5 32.75,-24.281 z m -177.66,2.38 19.156,23.12 -9.531,10.72 z" />
  </g>
  <metadata
     id="metadata10">
    <rdf:RDF>
      <cc:Work>
        <dc:format>image/svg+xml</dc:format>
        <dc:type
           rdf:resource="http://purl.org/dc/dcmitype/StillImage" />
        <cc:license
           rdf:resource="http://creativecommons.org/publicdomain/zero/1.0/" />
        <dc:publisher>
          <cc:Agent
             rdf:about="http://openclipart.org/">
            <dc:title>Openclipart</dc:title>
          </cc:Agent>
        </dc:publisher>
      </cc:Work>
      <cc:License
         rdf:about="http://creativecommons.org/publicdomain/zero/1.0/">
        <cc:permits
           rdf:resource="http://creativecommons.org/ns#Reproduction" />
        <cc:permits
           rdf:resource="http://creativecommons.org/ns#Distribution" />
        <cc:permits
           rdf:resource="http://creativecommons.org/ns#DerivativeWorks" />
      </cc:License>
    </rdf:RDF>
  </metadata>
</svg>
